[
  {
    "model": "program.type",
    "pk": 1,
    "fields": {
      "name": "Talk",
      "slug": "talk"
    }
  },
  {
    "model": "program.type",
    "pk": 2,
    "fields": {
      "name": "Musiksendung",
      "slug": "musiksendung"
    }
  },
  {
    "model": "program.type",
    "pk": 3,
    "fields": {
      "name": "Unmoderiertes Musikprogramm",
      "slug": "unmoderiertes-musikprogramm"
    }
  },
  {
    "model": "program.type",
    "pk": 4,
    "fields": {
      "name": "Feature/Magazin",
      "slug": "feature-magazin"
    }
  },
  {
    "model": "program.type",
    "pk": 5,
    "fields": {
      "name": "Experimentell",
      "slug": "experimentell"
    }
  },
  {
    "model": "program.type",
    "pk": 6,
    "fields": {
      "name": "Hörspiel/Literatur",
      "slug": "horspiel-literatur"
    }
  },
  {
    "model": "program.type",
    "pk": 7,
    "fields": {
      "name": "Vortrag/Diskussion",
      "slug": "vortrag-diskussion"
    }
  }
]
